…
### Examples 1

In STAT545A, I proposed a research question “Are trees with a specific
genus have longer diameter?”. To investigate this question, I need to
get the summary statistics trees’ diameters across trees’ genus.

Here below shows the dataset `vancouver_trees` by selecting the
`tree_id`, `genus_name` and `diameter` firstly.

``` r
select(vancouver_trees, tree_id, genus_name, diameter, everything())
```

    ## # A tibble: 146,611 x 20
    ##    tree_id genus_name diameter civic_number std_street    species_name
    ##      <dbl> <chr>         <dbl>        <dbl> <chr>         <chr>       
    ##  1  149556 ULMUS          10            494 W 58TH AV     AMERICANA   
    ##  2  149563 ZELKOVA        10            450 W 58TH AV     SERRATA     
    ##  3  149579 STYRAX          4           4994 WINDSOR ST    JAPONICA    
    ##  4  149590 FRAXINUS       18            858 E 39TH AV     AMERICANA   
    ##  5  149604 ACER            9           5032 WINDSOR ST    CAMPESTRE   
    ##  6  149616 PYRUS           5            585 W 61ST AV     CALLERYANA  
    ##  7  149617 ACER           15           4909 SHERBROOKE ST PLATANOIDES 
    ##  8  149618 ACER           14           4925 SHERBROOKE ST PLATANOIDES 
    ##  9  149619 ACER           16           4969 SHERBROOKE ST PLATANOIDES 
    ## 10  149625 FRAXINUS        7.5          720 E 39TH AV     AMERICANA   
    ## # ... with 146,601 more rows, and 14 more variables: cultivar_name <chr>,
    ## #   common_name <chr>, assigned <chr>, root_barrier <chr>, plant_area <chr>,
    ## #   on_street_block <dbl>, on_street <chr>, neighbourhood_name <chr>,
    ## #   street_side_name <chr>, height_range_id <dbl>, curb <chr>,
    ## #   date_planted <date>, longitude <dbl>, latitude <dbl>

Now, I call the function I made in **Exercise1** above to get the the
summary statistics of `diameter` across group `genus_name`.

``` r
summary_by_group(vancouver_trees$diameter, vancouver_trees$genus_name)
```

    ## # A tibble: 97 x 5
    ##    group_vector   max   min  mean median
    ##    <chr>        <dbl> <dbl> <dbl>  <dbl>
    ##  1 ABIES         42.5     1 12.9   12   
    ##  2 ACER         317       0 10.6    8   
    ##  3 AESCULUS      64       0 23.7   25   
    ##  4 AILANTHUS     21.5     3 15.9   19.5 
    ##  5 ALBIZIA        6       6  6      6   
    ##  6 ALNUS         40       0 17.5   17.5 
    ##  7 AMELANCHIER   20       0  3.21   3   
    ##  8 ARALIA        12       3  6.81   6.12
    ##  9 ARAUCARIA     32       3 11.4    8.5 
    ## 10 ARBUTUS       33       6 18.4   17.5 
    ## # ... with 87 more rows
…
