…
The following example outputs the summary statistics of the numerical
variable `diameter` across the groups of `genus_name` in the dataset
`vancouver_trees`

``` r
summary_by_group(datateachr::vancouver_trees$diameter, datateachr::vancouver_trees$genus_name)
#> # A tibble: 97 x 5
#>    group_vector   max   min  mean median
#>    <chr>        <dbl> <dbl> <dbl>  <dbl>
#>  1 ABIES         42.5     1 12.9   12   
#>  2 ACER         317       0 10.6    8   
#>  3 AESCULUS      64       0 23.7   25   
#>  4 AILANTHUS     21.5     3 15.9   19.5 
#>  5 ALBIZIA        6       6  6      6   
#>  6 ALNUS         40       0 17.5   17.5 
#>  7 AMELANCHIER   20       0  3.21   3   
#>  8 ARALIA        12       3  6.81   6.12
#>  9 ARAUCARIA     32       3 11.4    8.5 
#> 10 ARBUTUS       33       6 18.4   17.5 
#> # ... with 87 more rows
```
…
